12009:
3.617
3.3625
3.417
3.874
3.3594999999999997
3.7939999999999996
3.9764999999999997
4.011
3.939
3.807
4.2595
3.8339999999999996
3.7085
3.9924999999999997
3.774
3.261
3.8129999999999997
3.5655
4.0855
3.474
3.807
3.5534999999999997
3.699
3.636
3.869
3.4764999999999997
4.1075
3.767
3.82
1201:
3.7510000000000003
3.4405
3.642
3.7699999999999996
3.557
3.4985
3.0385
3.6935000000000002
3.4619999999999997
3.277
3.443
3.5940000000000003
3.2965
3.5885
3.8685
3.5564999999999998
3.377
3.7714999999999996
3.1935000000000002
3.566
3.4805
3.0995
3.3175
3.385
3.2504999999999997
3.5045
3.5415
3.5629999999999997
3.4585
3.122
3.1695
3.6879999999999997
3.2184999999999997
12010:
3.5055
3.5715
3.1479999999999997
2.867
3.198
3.4379999999999997
3.3135
3.798
3.4539999999999997
3.7315
3.391
3.33
3.051
3.56
3.502
3.3745000000000003
12011:
3.559
3.575
3.53
4.271
3.4604999999999997
3.543
3.667
3.4055
3.7554999999999996
4.05
4.0795
4.231999999999999
3.7085
3.4995
3.7115
3.383
3.3335
4.3335
3.816
3.6719999999999997
3.44
3.7225
3.679
3.8865
3.61
3.6745
3.932
3.777
4.0835
3.6215
3.9795
3.8335
3.751
3.7725
3.5054999999999996
3.6624999999999996
3.63
3.7199999999999998
3.4635
3.5885
3.391
12012:
3.5875
3.5235
3.7279999999999998
4.269
3.9085
3.854
12013:
2.8935
12014:
3.5685000000000002
3.85
3.48
3.232
3.4065000000000003
3.9414999999999996
3.4495
3.4234999999999998
3.5545
3.2640000000000002
3.5540000000000003
3.7145
3.9545
3.6225
3.2435
3.5755
3.024
3.732
3.677
3.4675000000000002
2.988
3.5205
3.6109999999999998
3.6229999999999998
3.553
3.64
3.7085
3.117
3.821
3.795
4.0489999999999995
4.1055
3.617
3.318
3.8515
3.5629999999999997
3.2489999999999997
3.4705
3.0244999999999997
3.7195
3.459
3.2835
3.3645
3.757
3.682
3.2855
3.467
3.6415
3.4234999999999998
3.4844999999999997
3.7305
3.7385
12015:
3.291
3.746
3.1875
4.052
3.597
3.1875
3.5195
3.451
3.286
3.607
3.3899999999999997
3.638
3.5535
3.291
3.2875
3.5615
4.0735
3.4285
3.2165
3.511
3.4505
3.5875
3.79
3.6094999999999997
3.6485000000000003
3.4530000000000003
3.217
3.608
3.5725
3.3495
3.6965
3.608
3.3795
3.1959999999999997
3.5745
3.71
3.409
3.987
3.7835
3.5685000000000002
3.4585
3.3925
3.4255
3.621
3.3875
3.653
12016:
3.9370000000000003
3.9305000000000003
4.128
3.718
3.912
3.59
3.7465
3.8914999999999997
3.583
3.89
3.7675
3.7705
4.1215
4.140000000000001
3.9755
3.8035
2.9735
4.007
12017:
3.528
3.8295
3.4265
3.9655
3.5380000000000003
3.6995
3.6055
3.5545
3.5975
3.4485
3.3415
3.52
3.3775
3.3985000000000003
3.6630000000000003
3.3105
3.6414999999999997
4.107
3.5010000000000003
12018:
2.7264999999999997
3.1340000000000003
2.4895
2.7365000000000004
3.032
12019:
3.9795
3.9435000000000002
3.835
3.8890000000000002
3.9095
4.038
3.2409999999999997
3.7725
4.035
3.997
3.266
3.6985
3.7809999999999997
4.1095
3.582
4.4685
3.9669999999999996
3.7305
3.8335
3.7765
3.883
3.843
3.666
3.7904999999999998
3.5495
3.768
3.5975
3.8255
3.526
3.7765
3.9145
4.1034999999999995
3.021
4.0285
3.8145
3.754
3.848
3.5965
3.512
3.3155
4.094
3.727
3.5934999999999997
3.6959999999999997
3.27
3.7800000000000002
3.4135
3.8034999999999997
3.7115
3.8945
3.6325
3.681
3.7474999999999996
3.8765
4.162
4.2185
4.3725
4.272
3.558
3.8125
4.4685
4.021
3.8129999999999997
3.9684999999999997
3.7685
3.7035
3.9885
3.7824999999999998
3.4349999999999996
3.9175
3.7859999999999996
3.7365
3.9944999999999995
4.0465
3.529
3.9185
3.7705
3.407
3.512
3.6559999999999997
3.863
3.9284999999999997
3.7785
3.8655
4.305
3.3855
4.035
3.9015
3.6390000000000002
3.9829999999999997
3.5285
4.252
4.0085
4.107
3.5195
4.169
3.7314999999999996
3.9965
3.338
3.8449999999999998
3.5069999999999997
3.676
3.73
3.635
3.731
3.8175
4.3215
4.09
1202:
3.565
3.3964999999999996
4.0555
3.4715
4.0715
3.481
3.8775
3.8579999999999997
3.535
4.038
3.4905
4.087
3.7560000000000002
3.5345
3.7344999999999997
4.0665
3.8605
3.872
3.888
3.9635
3.5985
3.9219999999999997
3.7075
3.7775
3.604
3.2455
3.5845000000000002
3.7975
3.0374999999999996
3.9365
3.5839999999999996
3.7385
3.731
3.4975
3.3895
3.6935000000000002
3.593
3.8
3.8040000000000003
3.7645
3.0205
3.533
4.009
3.636
3.324
3.504
3.927
3.6595
3.864
4.024
2.8405
3.535
3.7995
3.4755000000000003
3.698
3.564
3.19
3.1414999999999997
3.566
3.416
3.933
3.5025
3.3775
3.6029999999999998
3.6639999999999997
3.719
3.8075
3.991
3.792
3.58
3.5999999999999996
3.7554999999999996
3.8345000000000002
3.847
3.6985
3.605
3.613
3.836
3.8674999999999997
3.5404999999999998
3.6715
3.83
4.1035
4.0504999999999995
3.921
3.9675
3.839
3.5355
3.984
3.7595
4.1325
3.4955
3.9095
4.0649999999999995
3.6395
3.6029999999999998
3.9055
3.597
3.534
3.4379999999999997
3.7
3.824
3.894
3.4835000000000003
3.9265
3.7055
4.095
3.7995
3.719
3.5955
3.4275
3.949
3.8265000000000002
3.9105
3.854
4.117
3.5925000000000002
3.7015000000000002
3.4725
3.9265
3.399
3.476
4.1235
3.461
3.0205
3.8179999999999996
3.6275
3.0355
3.609
3.8665000000000003
3.82
3.9715
3.536
3.689
3.2984999999999998
3.721
3.5355
3.7245
3.7865
3.7625
3.822
3.6029999999999998
3.8575
3.191
3.419
3.7675
3.2184999999999997
3.8970000000000002
3.892
3.598
3.4905
4.138999999999999
3.7785
3.833
3.847
3.3970000000000002
3.776
3.6630000000000003
3.6425
3.94
3.951
3.911
3.0919999999999996
3.0919999999999996
3.5004999999999997
3.6345
3.754
3.6195
3.8625
3.461
3.7405
3.718
3.9465
3.5185
3.3465
3.4225
3.9135
3.9335
3.638
3.6765
4.077500000000001
4.1495
4.2605
3.699
3.8845
3.8205
3.7005
3.6445
3.9845
3.7625
4.143
3.9635
3.8005
4.2565
4.191
3.8935
3.907
3.7655
3.9145
3.894
3.6215
3.9365
3.7755
3.2439999999999998
4.121
3.6275
3.933
3.5705
3.473
3.7664999999999997
3.7880000000000003
3.809
3.4755000000000003
3.65
3.5995
3.865
3.6814999999999998
3.6105
3.622
4.0395
3.906
3.7504999999999997
3.678
3.6630000000000003
4.32
3.588
4.108499999999999
3.6384999999999996
3.745
3.5614999999999997
3.748
3.8499999999999996
3.964
3.7415000000000003
3.815
3.5065
3.5140000000000002
3.9975
3.815
3.746
3.964
3.7095000000000002
3.498
3.7015000000000002
3.8120000000000003
3.8175
3.9965
3.9375
3.7315
4.3774999999999995
3.7545
3.1870000000000003
3.992
3.659
3.938
3.6109999999999998
3.6384999999999996
3.9655
3.3465
3.1864999999999997
3.8135
3.528
3.822
3.8805
3.6205
3.7465
3.359
3.7235
4.01
4.007
3.6405
3.3865
3.6710000000000003
3.702
3.654
3.4775
3.856
3.8205
3.871
3.2359999999999998
3.6585
3.8315
3.5925000000000002
3.726
3.793
3.7904999999999998
3.7515
2.961
3.9065
3.3765
4.2565
3.4645
3.6855
3.859
3.2169999999999996
3.058
3.839
3.7385
4.074
3.6835
3.867
3.5365
3.9720000000000004
3.9065000000000003
3.9705000000000004
3.8514999999999997
3.5815
2.904
3.67
3.863
3.8970000000000002
4.003
3.394
3.227
3.143
3.5620000000000003
3.7155
3.8575
3.542
3.3975
3.983
4.101
3.495
4.0595
3.838
3.716
3.455
3.697
4.0525
3.795
3.447
4.121
3.4625
3.8754999999999997
3.766
3.9745
3.727
3.5805
3.5919999999999996
4.143
4.058
3.8495
3.9865
3.6710000000000003
3.793
3.8440000000000003
3.6390000000000002
3.8775
3.5745
3.6445
3.8259999999999996
3.9045
3.5919999999999996
3.3775
3.9419999999999997
3.6550000000000002
3.5380000000000003
3.3775
3.7475
3.69
3.909
3.474
3.553
3.916
3.66
3.8235
3.5865
3.2435
3.7675
4.058
3.227
3.7969999999999997
4.0185
3.24
3.5955
3.9385
4.23
3.6630000000000003
3.336
3.7714999999999996
4.0344999999999995
3.2735
3.8
3.8645
3.634
4.034
4.093
3.44
3.5825
3.6189999999999998
4.019
4.2475000000000005
3.711
2.961
3.3419999999999996
3.6215
3.8655
3.905
3.5149999999999997
4.056
3.5965
3.1925
3.0069999999999997
3.455
3.3369999999999997
3.7755
3.8885
3.574
3.6944999999999997
3.654
3.8185000000000002
3.815
2.909
3.793
4.2575
3.5545
3.662
3.841
3.944
3.6390000000000002
3.661
3.314
3.5614999999999997
3.9419999999999997
3.6334999999999997
3.9684999999999997
3.8005
3.549
3.5404999999999998
4.0545
3.57
3.6435
3.711
3.9685
3.495
3.754
3.641
3.7874999999999996
3.1955
4.031499999999999
3.7375
3.8045
3.815
3.8775
3.3945
3.852
3.703
4.021
3.6955
3.713
3.9485
4.0895
3.5355
3.762
3.6765
3.902
4.0635
3.84
3.836
3.567
3.871
3.9255
3.9029999999999996
3.6995
3.607
3.6654999999999998
3.7664999999999997
2.8565
3.9499999999999997
3.9819999999999998
3.6159999999999997
3.8015
3.5955
3.8970000000000002
3.9285
3.524
3.5735
3.593
3.5315
3.9615
3.8375
3.5625
3.8594999999999997
3.3339999999999996
3.8285
3.9225
3.961
4.093
3.8985
3.8425000000000002
3.4825
3.7675
3.5665
3.8095
3.806
3.9545
3.835
3.5725
3.769
3.8735
3.9419999999999997
3.4815
3.5709999999999997
3.911
3.666
3.7705
3.941
3.4695
3.5265
3.597
4.2620000000000005
3.306
3.714
3.7595
3.844
3.9419999999999997
3.4154999999999998
3.689
3.4945
3.9505
3.5380000000000003
4.0085
3.697
3.5549999999999997
3.5995
3.5084999999999997
3.6775
3.8085
3.5694999999999997
3.758
3.8674999999999997
3.6449999999999996
3.842
3.6225
3.7315
3.9375
3.508
3.455
3.544
3.41
3.783
3.7885
2.8775
3.8845
3.317
4.109999999999999
3.9045
3.5905
3.9285
3.6925
3.6475
3.4775
3.6615
3.916
3.705
3.7735
3.722
3.7510000000000003
3.759
3.8945
3.7714999999999996
3.5999999999999996
3.293
3.9695
3.7305
3.67
3.6775
3.408
3.6645
3.6295
3.458
4.241
3.7705
3.2525
4.1274999999999995
3.7409999999999997
4.0184999999999995
3.7024999999999997
3.685
3.618
3.9375
3.7439999999999998
4.181
3.4290000000000003
3.526
3.7649999999999997
3.521
3.504
3.706
3.3775
4.1274999999999995
4.099
3.713
4.0
4.0225
3.9215
3.9085
3.3625
3.3594999999999997
3.6799999999999997
3.7655000000000003
3.8040000000000003
3.849
4.0685
3.7755
3.5185
3.4515000000000002
3.716
3.1704999999999997
4.022
4.0095
3.7584999999999997
3.9335
3.493
3.6310000000000002
4.161
3.9895
3.6085000000000003
3.33
3.841
3.599
3.6014999999999997
3.692
4.1465
3.9459999999999997
3.5635
3.184
3.5835
3.943
3.8405
3.7805
3.5835
3.7225
3.7805
2.782
3.6455
4.01
3.42
3.6975
3.7714999999999996
3.689
3.979
3.8775
3.535
3.9274999999999998
3.895
3.8245
3.909
3.3034999999999997
3.573
3.7915
3.9685
3.6334999999999997
4.0545
3.7649999999999997
3.2475
3.6275
3.9555
3.5665
3.469
4.1345
3.7295
3.8775
3.7525
3.972
3.8565
4.0585
3.2205
3.612
3.831
3.794
4.1425
3.32
3.363
3.7705
3.7655
3.419
3.6414999999999997
3.715
3.4465
3.8715
3.784
3.7225
3.6775
3.8339999999999996
3.9305
3.8775
3.9255
3.3775
4.199
3.8609999999999998
4.1775
3.534
3.7525
3.3625
3.723
3.6275
3.0324999999999998
3.998
4.009
3.9175
4.025
3.5875
3.5294999999999996
3.767
3.9354999999999998
3.5839999999999996
3.911
4.1195
3.8
4.152
4.237
3.825
3.6055
3.7865
3.878
3.7074999999999996
4.3774999999999995
3.882
3.936
3.824
4.1455
3.6805
3.7075
3.23
3.8209999999999997
3.5540000000000003
3.8594999999999997
2.5255
3.586
3.7024999999999997
3.5745
3.191
4.1295
3.8739999999999997
4.12
3.694
3.5795
3.644
3.959
3.795
3.801
4.023
4.024
3.527
3.795
3.701
3.63
3.9635
3.7335000000000003
4.133
3.782
4.0675
3.7525
3.745
3.8235
3.7889999999999997
4.0415
2.9895
3.7009999999999996
4.0275
3.4455
3.711
3.6475
3.3775
3.294
3.716
3.637
3.344
3.5075
3.118
3.935
3.9905
4.311
4.3785
3.3375
3.4835000000000003
4.034
3.838
3.6014999999999997
3.984
3.782
3.6094999999999997
3.7995
3.474
3.745
3.5995
3.792
3.572
4.099
3.702
3.824
3.75
3.798
3.6615
3.614
3.699
3.708
3.8594999999999997
3.7169999999999996
3.7695
3.9419999999999997
3.3335
4.131
3.6055
3.8970000000000002
3.662
3.7275
3.7335000000000003
3.7489999999999997
3.715
3.9845
4.0825
3.787
3.8025
3.574
3.6855
3.8339999999999996
3.856
3.8485
3.4775
3.794
3.3970000000000002
4.0275
3.9665
3.925
4.0440000000000005
3.9139999999999997
3.5765000000000002
3.4364999999999997
3.392
3.9314999999999998
3.7515
3.8125
3.6464999999999996
3.8274999999999997
3.259
3.711
3.2385
3.7645
3.959
3.5335
3.5385
4.211
3.7575
3.5084999999999997
3.6935000000000002
3.3369999999999997
3.2344999999999997
3.357
4.0535
3.5965
3.008
3.714
3.7315
3.6624999999999996
3.6814999999999998
4.005
3.529
3.5595
3.754
4.191
3.7960000000000003
3.7969999999999997
3.5175
3.348
3.4695
3.78
3.3245
3.7245
3.5695
3.487
3.9765
3.6035
3.211
3.444
3.9354999999999998
3.3775
3.29
3.7225
3.7475
3.8465
3.875
3.7215
3.871
3.622
3.2525
3.7584999999999997
3.76
3.5625
4.0969999999999995
3.751
3.7235
3.7765
3.3775
3.269
3.615
3.899
3.6555
3.783
3.7264999999999997
3.1035
3.588
3.8335
3.839
3.6710000000000003
3.9154999999999998
3.7525
3.6825
4.0465
3.7089999999999996
3.6375
3.872
3.7165
3.8419999999999996
3.887
3.74
3.4895
3.888
3.3165
3.8274999999999997
3.591
4.047
3.7025
3.6470000000000002
4.265000000000001
3.6574999999999998
3.668
3.292
3.6275
3.7725
3.605
3.5745
3.669
3.7525
3.6855
3.558
4.061999999999999
3.6345
3.9045
3.4655
3.495
3.9274999999999998
3.6944999999999997
3.6275
3.5475
3.4139999999999997
3.4965
3.433
2.839
3.7245
3.6755
3.8185000000000002
3.965
3.6734999999999998
3.7455
3.7835
3.5759999999999996
4.125
3.7865
3.3120000000000003
3.586
3.856
3.2475
3.4515000000000002
3.8075
3.6025
3.6185
3.887
3.86
3.742
3.706
3.3775
3.4875
3.909
3.6695
4.154
3.65
4.076499999999999
3.449
4.136
2.8209999999999997
4.0489999999999995
3.4805
3.085
3.907
3.5839999999999996
3.4684999999999997
3.9234999999999998
4.0440000000000005
3.044
3.9579999999999997
3.809
3.5105
3.754
3.7805
3.7359999999999998
4.1245
4.001
3.825
3.6085000000000003
3.9485
3.586
3.222
3.535
4.1015
3.801
3.7664999999999997
3.641
3.775
3.7855
3.6585
3.0095
3.7225
3.5985
4.04
3.6414999999999997
3.8659999999999997
3.74
3.5175
3.909
3.6159999999999997
3.407
3.8335
3.497
3.4459999999999997
3.8485
3.965
3.2775
3.785
4.073
3.891
3.7515
4.0600000000000005
3.816
3.8535
3.62
3.7889999999999997
3.95
3.6395
3.4645
3.768
3.525
3.408
3.8994999999999997
4.0245
3.2744999999999997
3.6470000000000002
3.8775
3.7024999999999997
3.3659999999999997
3.0415
3.8049999999999997
3.815
3.544
3.598
3.5025
3.9859999999999998
3.933
3.9005
3.8385
3.8625
3.992
3.831
3.761
3.4255
3.8905
3.7504999999999997
3.897
3.917
3.8535
3.3645
3.8725
3.8625
4.0165
3.9175
3.1275
3.7225
3.5725
3.698
3.604
3.6875
4.231999999999999
3.7595
3.8165
3.556
3.508
3.508
3.4835000000000003
3.311
3.3964999999999996
3.9114999999999998
3.8994999999999997
3.964
3.5715
3.6870000000000003
3.8325
3.84
3.6710000000000003
3.6304999999999996
3.3105
3.6790000000000003
3.902
3.642
3.8775
3.6935000000000002
3.3085
3.609
3.593
3.8049999999999997
3.6275
4.0705
3.8005
4.048
3.6105
4.0395
3.7560000000000002
3.525
3.8255
3.9305
3.4345
3.9745
3.8970000000000002
3.806
3.691
3.863
3.1825
3.561
3.6630000000000003
3.665
3.363
3.815
3.8015
3.295
3.7335000000000003
3.7584999999999997
3.1935000000000002
3.718
3.6715
3.7135
3.911
3.6775
3.7640000000000002
3.4524999999999997
3.6395
3.2954999999999997
3.636
3.8434999999999997
3.6005000000000003
3.9935
2.9965
3.5140000000000002
3.836
3.6825
3.8274999999999997
3.5069999999999997
3.316
4.1274999999999995
3.396
3.763
3.7035
3.525
3.73
3.7775
3.8495
3.509
3.6275
3.9015
4.0440000000000005
3.5425
3.9885
4.0035
3.944
3.8565
3.7199999999999998
3.484
3.658
3.5585
3.799
4.1235
3.739
3.7865
3.5815
3.5205
3.415
4.1129999999999995
3.955
4.1899999999999995
3.6094999999999997
3.6475
3.761
3.8185000000000002
3.3205
3.411
3.691
3.8360000000000003
4.022
3.811
3.8775
3.5995
3.5205
3.184
3.501
3.8425000000000002
3.5815
3.355
3.223
3.668
3.7375
3.613
3.387
3.751
3.904
3.992
3.8135
3.6065
3.181
3.6105
3.939
3.4975
3.739
3.5685000000000002
3.868
3.5725
3.617
3.9635
3.8129999999999997
3.182
3.7809999999999997
3.7904999999999998
3.83
3.9675
3.2525
3.5839999999999996
3.5715
3.5255
3.7515
3.711
3.8295
3.4905
3.6470000000000002
3.9245
3.0214999999999996
3.9525
3.5275
3.9859999999999998
3.683
3.594
3.3285
3.7395
3.34
3.7039999999999997
3.891
3.79
2.8085
3.8815
3.906
3.8040000000000003
3.2554999999999996
3.7415000000000003
3.9579999999999997
3.7625
3.803
3.482
4.1065
4.1655
3.649
4.3774999999999995
3.6639999999999997
3.8529999999999998
3.6305
3.9615
3.6159999999999997
3.894
4.052
3.8535
3.3979999999999997
3.832
3.7465
3.8885
3.929
3.9859999999999998
3.748
3.6725
3.8615
3.8795
3.2415000000000003
3.5015
3.8954999999999997
3.995
3.597
3.8775
4.088
3.582
3.8725
4.053
4.1065
3.526
4.027
3.5745
3.419
3.7960000000000003
3.873
3.4975
3.5454999999999997
3.646
3.7409999999999997
3.7095000000000002
3.6555
3.8085
3.6639999999999997
3.7960000000000003
3.831
3.4915000000000003
3.9885
3.5919999999999996
3.5755
3.795
3.787
3.135
3.505
3.6105
3.6879999999999997
3.6925
3.7455
4.061
3.9665
3.4625
3.4435000000000002
3.9145
3.5225
3.8375
3.7405
3.862
3.881
3.9495
3.965
3.6695
3.461
3.873
3.981
3.825
3.306
3.173
3.94
3.3499999999999996
3.8165
3.6479999999999997
3.447
3.4025
3.606
3.7279999999999998
3.7329999999999997
3.8775
3.6645
3.69
3.6790000000000003
3.6515
3.411
3.711
3.758
3.8775
3.681
3.827
3.638
3.8834999999999997
3.4775
3.5995
3.8395
3.9015
3.517
3.5845000000000002
3.8825
3.6784999999999997
3.5679999999999996
3.711
3.3895
4.0045
3.1395
3.794
1.02
